<svg 
 xmlns="http://www.w3.org/2000/svg"
 xmlns:xlink="http://www.w3.org/1999/xlink"
 width="44px" height="30px">
<path fill-rule="evenodd"  fill="rgb(24, 207, 171)"
 d="M9.658,10.903 C14.969,10.903 19.274,15.176 19.274,20.448 C19.274,25.720 14.969,29.993 9.658,29.993 C4.348,29.993 0.043,25.720 0.043,20.448 L-0.000,19.084 C-0.000,8.541 8.610,-0.006 19.231,-0.006 L19.231,5.447 C15.562,5.447 12.112,6.866 9.518,9.442 C9.019,9.938 8.563,10.466 8.152,11.021 C8.643,10.945 9.146,10.903 9.658,10.903 ZM34.384,10.903 C39.695,10.903 44.000,15.176 44.000,20.448 C44.000,25.720 39.695,29.993 34.384,29.993 C29.074,29.993 24.769,25.720 24.769,20.448 L24.726,19.084 C24.726,8.541 33.336,-0.006 43.957,-0.006 L43.957,5.447 C40.288,5.447 36.838,6.866 34.244,9.442 C33.744,9.938 33.289,10.466 32.877,11.021 C33.368,10.945 33.872,10.903 34.384,10.903 Z"/>
</svg>